
The following files have been resolved:
   com.auth0:java-jwt:jar:3.8.1:compile
   org.eclipse.jetty:jetty-webapp:jar:9.4.12.v20180830:compile
   org.eclipse.jetty.websocket:websocket-server:jar:9.4.12.v20180830:compile
   com.fasterxml.jackson.core:jackson-databind:jar:2.9.9:compile
   org.eclipse.jetty.websocket:websocket-client:jar:9.4.12.v20180830:compile
   at.favre.lib:bcrypt:jar:0.8.0:compile
   org.eclipse.jetty:jetty-util:jar:9.4.12.v20180830:compile
   org.slf4j:slf4j-simple:jar:1.7.26:compile
   org.eclipse.jetty:jetty-security:jar:9.4.12.v20180830:compile
   org.eclipse.jetty:jetty-http:jar:9.4.12.v20180830:compile
   org.javalite:javalite-common:jar:2.2:compile
   org.eclipse.jetty.websocket:websocket-api:jar:9.4.12.v20180830:compile
   com.fasterxml.jackson.core:jackson-core:jar:2.9.9:compile
   org.javalite:activejdbc:jar:2.2:compile
   org.javalite:app-config:jar:2.2:compile
   org.eclipse.jetty:jetty-server:jar:9.4.12.v20180830:compile
   com.sparkjava:spark-core:jar:2.8.0:compile
   org.eclipse.jetty:jetty-xml:jar:9.4.12.v20180830:compile
   javax.servlet:javax.servlet-api:jar:3.1.0:compile
   com.fasterxml.jackson.core:jackson-annotations:jar:2.9.0:compile
   org.flywaydb:flyway-core:jar:5.2.4:compile
   com.google.code.gson:gson:jar:2.8.5:compile
   org.eclipse.jetty.websocket:websocket-servlet:jar:9.4.12.v20180830:compile
   mysql:mysql-connector-java:jar:5.1.36:compile
   org.slf4j:slf4j-api:jar:1.7.25:compile
   org.eclipse.jetty:jetty-client:jar:9.4.12.v20180830:compile
   org.eclipse.jetty:jetty-io:jar:9.4.12.v20180830:compile
   org.eclipse.jetty:jetty-servlet:jar:9.4.12.v20180830:compile
   org.eclipse.jetty.websocket:websocket-common:jar:9.4.12.v20180830:compile
   commons-codec:commons-codec:jar:1.11:compile
   postgresql:postgresql:jar:9.1-901-1.jdbc4:compile
   at.favre.lib:bytes:jar:1.1.0:compile

